No.,"Zone Name","Zone Channel Member","Zone Channel Member RX Frequency","Zone Channel Member TX Frequency","A Channel","A Channel RX Frequency","A Channel TX Frequency","B Channel","B Channel RX Frequency","B Channel TX Frequency"
1,Hotspot,"TOSCANA MP | ITA MP | EU | WW | Local | Simplex | Hotspot OFF | Hotspot Reboot | Unlink | Andreas | APRS | Parrot | JOTA IT | I5EKX Alex | Radio Test | SOTA | POTA | Net Talkgroup 1 | Net Talkgroup 2 | TAC1-ITA | TAC2-ITA | TAC3-ITA | TAC4-ITA | TAC5-ITA | TAC6-ITA | TAC7-ITA | TAC8-ITA | TAC9-ITA | TAC10-ITA | Cluster GRF | XLX Status | XLX Disconnect | XLX | XLX Module A | XLX Module B | XLX Module C | XLX Module D | XLX Module E | XLX Module F","433.675 | 433.675 | 433.675 | 433.675 | 433.675 | 433.675 | 433.675 | 433.675 | 433.675 | 433.675 | 433.675 | 433.675 | 433.675 | 433.675 | 433.675 | 433.675 | 433.675 | 433.675 | 433.675 | 433.675 | 433.675 | 433.675 | 433.675 | 433.675 | 433.675 | 433.675 | 433.675 | 433.675 | 433.675 | 433.675 | 433.675 | 433.675 | 433.675 | 433.675 | 433.675 | 433.675 | 433.675 | 433.675 | 433.675","433.675 | 433.675 | 433.675 | 433.675 | 433.675 | 433.675 | 433.675 | 433.675 | 433.675 | 433.675 | 433.675 | 433.675 | 433.675 | 433.675 | 433.675 | 433.675 | 433.675 | 433.675 | 433.675 | 433.675 | 433.675 | 433.675 | 433.675 | 433.675 | 433.675 | 433.675 | 433.675 | 433.675 | 433.675 | 433.675 | 433.675 | 433.675 | 433.675 | 433.675 | 433.675 | 433.675 | 433.675 | 433.675 | 433.675","TOSCANA MP",433.675,433.675,"ITA MP",433.675,433.675
2,Simplex,"ARI FI | Call VHF | Call UHF | APRS | APRS VA | DMR Call V | DMR Call U","145.225 | 145.5 | 433.5 | 144.8 | 144.8 | 145.45 | 433.45","145.225 | 145.5 | 433.5 | 144.8 | 144.8 | 145.45 | 433.45","ARI FI",145.225,145.225,"Call VHF",145.5,145.5
3,Abruzzo-A-UHF,"AQ-RU1 | AQ-IR6UT | AQ-IZ6BGQ | AQ-RU7 | AQ-IZ6BGQ4 | AQ-IZ6BGQ5 | AQ-RU15 | AQ-IZ6BGQ8 | AQ-IZ6BGQ10 | AQ-IZ6BGQ11 | AQ-IZ6BGQ13 | CH-IR6UAE | CH-IR6UQ | TE-IQ6RS | TE-RU2a | TE-IR6UH | TE-IR6UDD2","430.025000 | 430.125000 | 430.162500 | 430.175000 | 430.250000 | 430.300000 | 430.375000 | 430.712500 | 430.737500 | 430.762500 | 430.975000 | 430.087500 | 430.200000 | 430.050000 | 430.062500 | 430.150000 | 430.275000","431.625 | 431.725 | 435.1625 | 431.775 | 435.25 | 435.3 | 431.975 | 435.7125 | 435.7375 | 435.7625 | 435.975 | 431.6875 | 431.8 | 431.65 | 431.6625 | 431.75 | 435.275",AQ-RU1,430.025000,431.625,TE-IR6UDD2,430.275000,435.275
4,Abruzzo-A-VHF,"AQ-R0 | AQ-IR6N | AQ-IR6M | AQ-IR6L | AQ-IR6X | AQ-R5a | AQ-R6a | CH-IK6IHU | CH-IZ6PWG | CH-IU6DAZ | CH-IR6UDH | CH-R1a | CH-IR6AA | CH-IR6Q | CH-IR6S | CH-R6a-2 | PE-IZ6OUF | PE-V20 | PE-IR6R | TE-IK6FBY2 | TE-IU6IBX | TE-IR6AL | TE-IR6O | TE-R3a | TE-IR6K | TE-IR6Z","145.600000 | 145.625000 | 145.662500 | 145.675000 | 145.712500 | 145.737500 | 145.762500 | 144.650000 | 144.975000 | 144.987500 | 145.587500 | 145.637500 | 145.662500 | 145.700000 | 145.737500 | 145.762500 | 144.912500 | 145.250000 | 145.787500 | 144.937500 | 144.937500 | 145.650000 | 145.675000 | 145.687500 | 145.725000 | 145.750000","145 | 145.025 | 145.0625 | 145.075 | 145.1125 | 145.1375 | 145.1625 | 144.65 | 144.975 | 144.9875 | 144.9875 | 145.0375 | 145.0625 | 145.1 | 145.1375 | 145.1625 | 144.9125 | 145.25 | 145.1875 | 144.9375 | 144.9375 | 145.05 | 145.075 | 145.0875 | 145.125 | 145.15",AQ-R0,145.600000,145,TE-IR6Z,145.750000,145.15
5,Abruzzo-D,"AQ-IR6UBA-IT | AQ-IR6UDO-IT | AQ-IZ6BGQ2-IT | AQ-IR6UCG-IT | AQ-IZ6BGQ3-IT | AQ-IR6UDF-IT | AQ-IZ6BGQ6-IT | AQ-IZ6BGQ7-IT | AQ-IZ6BGQ9-IT | AQ-IZ6BGQ12-IT | AQ-IZ6BGQ14-IT | AQ-IR6UDG-IT | CH-IR6UCX-IT | CH-IR6UDH2-IT | CH-IR6UCX2-IT | CH-IR6UBJ-IT | CH-IR6UDB-IT | CH-IR6UDM-IT | CH-IZ6BGQ15-IT | PE-IR6UDE-IT | PE-IR6UDP-BM | TE-IK6FBY-IT | TE-IU6IBX2-IT | TE-IR6UDD-IT | TE-IR6UCU-IT | TE-IU6IBX3-IT","430.062500 | 430.137500 | 430.162500 | 430.225000 | 430.250000 | 430.275000 | 430.300000 | 430.712500 | 430.737500 | 430.762500 | 430.975000 | 431.575000 | 145.562500 | 430.037500 | 430.237500 | 430.312500 | 430.362500 | 430.387500 | 430.687500 | 430.350000 | 430.550000 | 144.937500 | 430.225000 | 430.275000 | 430.337500 | 430.700000","435.0625 | 431.7375 | 435.1625 | 435.225 | 435.25 | 431.875 | 435.3 | 435.7125 | 435.7375 | 435.7625 | 435.975 | 433.175 | 144.9625 | 435.0375 | 435.2375 | 435.3125 | 431.9625 | 435.3875 | 435.6875 | 431.95 | 435.55 | 144.9375 | 435.225 | 435.275 | 435.3375 | 435.7",AQ-IR6UBA-IT,430.062500,435.0625,TE-IU6IBX3-IT,430.700000,435.7
6,Basilicata-A-UHF,"MT-RU9 | PZ-RU2 | PZ-IR8UAJ2 | PZ-IR8UAJ3 | PZ-IZ8LKC | PZ-IZ8LKC2 | PZ-U148","430.225000 | 430.050000 | 430.075000 | 430.087500 | 430.500000 | 430.500000 | 431.850000","431.825 | 431.65 | 431.675 | 431.6875 | 435.5 | 435.5 | 430.25",MT-RU9,430.225000,431.825,PZ-U148,431.850000,430.25
7,Basilicata-A-VHF,"MT-IR7R | MT-R6 | PZ-IR8L | PZ-IR8N | PZ-I0NLV | PZ-IR8UAJ | PZ-IR8BQ | PZ-IR8BQ2","145.675000 | 145.750000 | 145.600000 | 145.625000 | 145.650000 | 145.675000 | 145.687500 | 145.687500","145.075 | 145.15 | 145 | 145.025 | 145.05 | 145.075 | 145.0875 | 145.0875",MT-IR7R,145.675000,145.075,PZ-IR8BQ2,145.687500,145.0875
8,Basilicata-D,"PZ-IZ6FGP-IT | PZ-IR8UK-BM","430.100000 | 431.800000","435.1 | 430.2",PZ-IZ6FGP-IT,430.100000,435.1,PZ-IR8UK-BM,431.800000,430.2
9,Calabria-A-UHF,"CS-IW8PGT | CS-RU2-2 | CS-RU3 | CS-I8TZJ | CS-IR8US | CS-IR8UAX | CS-IQ8CS | CS-IQ8HH | CS-IR8UCZ | CS-U148-2 | CZ-IU8JMR | CZ-RU7-2 | CZ-IQ8JQ | RC-IR8UR | RC-IR8UAM | RC-IT9IJI | RC-IR8UW | RC-RU9-2 | RC-IR8UAY | RC-IR8UCO3 | RC-IR8UCO4 | RC-U56 | RC-IR9AUE | RC-IR8UAA | RC-IQ8QS2 | RC-U168 | RC-IZ2YGG2 | RC-U401 | RC-IZ8FEX3 | VV-RU6a | VV-IR8UDK","430.025000 | 430.050000 | 430.075000 | 430.150000 | 430.175000 | 430.225000 | 430.250000 | 430.350000 | 430.400000 | 431.850000 | 430.100000 | 430.175000 | 430.300000 | 430.025000 | 430.050000 | 430.137500 | 430.200000 | 430.225000 | 430.275000 | 430.300000 | 430.350000 | 430.700000 | 430.975000 | 431.425000 | 431.437500 | 432.100000 | 433.625000 | 435.012500 | 435.375000 | 430.162500 | 430.500000","435.025 | 431.65 | 431.675 | 431.75 | 431.775 | 431.825 | 431.85 | 435.35 | 435.4 | 430.25 | 435.1 | 431.775 | 435.3 | 431.625 | 431.65 | 431.7375 | 431.8 | 431.825 | 431.875 | 435.3 | 435.35 | 435.7 | 435.975 | 433.025 | 433.0375 | 432.1 | 433.625 | 435.0125 | 435.375 | 431.7625 | 435.5",CS-IW8PGT,430.025000,435.025,VV-IR8UDK,430.500000,435.5
10,Calabria-A-VHF,"CS-IR8DP | CS-IR8DO | CS-IR8DJ | CS-IR8BJ | CS-IQ8IB | CS-IR8AB | CS-IR8AB2 | CS-R3 | CS-IR8DT | CS-IR8CE | CS-IR8V | CZ-IR8DS | CZ-IR8DS2 | CZ-IQ8YC | CZ-IR8U | CZ-IR8UAC | CZ-IR8O | RC-IZ2YGG | RC-IR8UCO | RC-IZ8FEX | RC-V156 | RC-IR8DL | RC-IR8DE | RC-IZ8FEX2 | RC-IQ8QS | RC-IR8AJ | RC-IR8R | RC-IR8P | RC-IR8Q | RC-IR8DM | RC-IR8UCO2 | RC-IQ8WA | RC-IR8DV | VV-V135 | VV-IZ8SJE | VV-R0a | VV-R3a-2 | VV-R6a-3","144.925000 | 145.237500 | 145.287500 | 145.625000 | 145.625000 | 145.662500 | 145.662500 | 145.675000 | 145.712500 | 145.725000 | 145.775000 | 145.575000 | 145.575000 | 145.587500 | 145.650000 | 145.700000 | 145.725000 | 144.637500 | 144.900000 | 144.912500 | 144.937500 | 145.300000 | 145.462500 | 145.537500 | 145.562500 | 145.587500 | 145.600000 | 145.625000 | 145.650000 | 145.650000 | 145.687500 | 145.725000 | 145.737500 | 144.675000 | 145.600000 | 145.612500 | 145.687500 | 145.762500","144.925 | 145.2375 | 145.2875 | 145.025 | 145.025 | 145.0625 | 145.0625 | 145.075 | 145.1125 | 145.125 | 145.175 | 144.975 | 144.975 | 144.9875 | 145.05 | 145.1 | 145.125 | 144.6375 | 144.9 | 144.9125 | 144.9375 | 144.7 | 145.4625 | 145.5375 | 144.9625 | 144.9875 | 145 | 145.025 | 145.05 | 145.05 | 145.0875 | 145.125 | 145.1375 | 144.675 | 145 | 145.0125 | 145.0875 | 145.1625",CS-IR8DP,144.925000,144.925,VV-R6a-3,145.762500,145.1625
11,Calabria-D,"CS-IU8LIF | CZ-IW8QNI-IT | RC-IU8EQC-BM | RC-IR8UCN-IT | RC-IR8UCO5-BM | RC-IR8DA-BM","433.500000 | 430.050000 | 145.587500 | 430.325000 | 430.375000 | 430.750000","435.1 | 435.05 | 144.9875 | 435.325 | 435.375 | 435.75",CS-IU8LIF,433.500000,435.1,RC-IR8DA-BM,430.750000,435.75
12,Campania-A-UHF,"AV-IZ8QAD3 | AV-RU4 | AV-RU12 | BN-IR8UCG | BN-IR8UCP | CE-IR8UCV | CE-IR8UU | CE-RU11a | CE-IR8UDA | NA-IR8UAH | NA-IR8UDL | NA-IR8UDL2 | NA-IR8UDD | NA-U31 | NA-IK8JHL | NA-IU8JPO | NA-IR8UO | NA-IZ8STJ2 | SA-IR8UDE | SA-IR8UI | SA-IR8UJ | SA-IR8U2 | SA-IK8YBE2 | SA-IR8UCX | SA-U138","430.037500 | 430.100000 | 430.300000 | 430.087500 | 431.287500 | 430.025000 | 430.225000 | 430.287500 | 431.325000 | 430.050000 | 430.162500 | 430.162500 | 430.275000 | 430.387500 | 430.600000 | 431.375000 | 431.462500 | 433.450000 | 430.075000 | 430.125000 | 430.175000 | 430.175000 | 430.250000 | 430.375000 | 431.725000","435.0375 | 431.7 | 431.9 | 431.6875 | 432.8875 | 435.025 | 435.225 | 431.8875 | 432.925 | 431.65 | 435.1625 | 435.1625 | 435.275 | 435.3875 | 435.6 | 432.975 | 433.0625 | 433.45 | 431.675 | 435.125 | 435.175 | 431.775 | 431.85 | 431.975 | 430.125",AV-IZ8QAD3,430.037500,435.0375,SA-U138,431.725000,430.125
13,Campania-A-VHF,"AV-IZ8QAD | AV-R2a | AV-IR8E | AV-IR8BR | BN-IR8DU | BN-IR8CK | BN-R5a-2 | CE-IR8EC | CE-IR8F | NA-IZ8STJ | NA-V47 | NA-IR8CD | NA-IR8AC | NA-IR8G | NA-IR8AT | NA-IR8BS | SA-IK8HCC | SA-IK8WEP | SA-IK8YBE | SA-V47-2 | SA-IR8S | SA-IR8AE2 | SA-R4 | SA-IR8M | SA-IR8UDP | SA-IR8UDP2 | SA-IR8X | SA-IR8H","144.937500 | 145.662500 | 145.725000 | 145.750000 | 145.637500 | 145.675000 | 145.737500 | 145.675000 | 145.700000 | 144.850000 | 145.587500 | 145.600000 | 145.625000 | 145.650000 | 145.712500 | 145.762500 | 144.675000 | 144.700000 | 144.750000 | 145.587500 | 145.637500 | 145.700000 | 145.700000 | 145.737500 | 145.750000 | 145.750000 | 145.762500 | 145.775000","144.9375 | 145.0625 | 145.125 | 145.15 | 145.0375 | 145.075 | 145.1375 | 145.075 | 145.1 | 144.85 | 144.9875 | 145 | 145.025 | 145.05 | 145.1125 | 145.1625 | 144.675 | 144.7 | 144.15 | 144.9875 | 145.0375 | 145.1 | 145.1 | 145.1375 | 145.15 | 145.15 | 145.1625 | 145.175",AV-IZ8QAD,144.937500,144.9375,SA-IR8H,145.775000,145.175
14,Campania-D,"AV-IR8BX-BM | AV-IZ8QAD2-BM | AV-IR8UBV-BM | AV-IR8BU-BM | AV-IR8UDN-BM | CE-IR8UAK-BM | NA-IZ6FGP2-IT | NA-IR8UDM-BM | NA-IQ8PQ-BM | NA-IZ8GDO-BM | NA-IZ8OEU-BM | NA-IR8UCE-BM | NA-IU8ADS-BM | SA-IR8BR2-BM | SA-IR8AE-BM | SA-IZ8CMZ-BM | SA-IZ8CSD-BM | SA-IQ8BB-BM","145.575000 | 430.037500 | 430.212500 | 430.362500 | 435.012500 | 431.337500 | 430.012500 | 430.050000 | 430.237500 | 430.550000 | 430.675000 | 435.287500 | 435.525000 | 145.575000 | 145.700000 | 430.037500 | 430.400000 | 430.600000","144.975 | 435.0375 | 435.2125 | 435.3625 | 430.0125 | 432.9375 | 435.0125 | 435.05 | 435.2375 | 435.55 | 435.675 | 430.2875 | 430.525 | 144.975 | 145.1 | 435.0375 | 435.4 | 435.6",AV-IR8BX-BM,145.575000,144.975,SA-IQ8BB-BM,430.600000,435.6
15,EmiliaRoma-A-UHF,"BO-IR4UY | BO-IR4UZ | BO-IR4BG | BO-IR4UB | BO-U45 | BO-IW4AHQ | BO-U46 | BO-IR4UCA | BO-IR4UCM | FC-RU3-2 | FC-IR4UI | FC-IK4ICW | FC-IR4UCN2 | FC-IQ4JO | FC-RU18 | FC-IR4UBA | FC-RU24a | FC-IR4UCG2 | FE-RU10 | FE-IR4C2 | FE-IR4UAM | MO-IR4UAI | MO-IR4UBX | MO-IK4XQC2 | PC-IR4UR | PC-IU4DKT | PC-IR4UBM | PR-IR4UN | PR-IR4UAW | PR-IR4UAV | PR-IR4UAV2 | PR-U58 | PR-IR4UCD | PR-RU21 | RA-IR4UO | RA-IR4UAL | RA-IR4UBY2 | RE-IR4UA | RE-IR4UA2 | RE-IR4UBC | RN-IR4UU | RN-IR4UBN | RN-RU4-2","430.037500 | 430.062500 | 430.150000 | 430.175000 | 430.562500 | 430.562500 | 430.575000 | 430.650000 | 431.312500 | 430.075000 | 430.112500 | 430.325000 | 430.375000 | 430.887500 | 431.275000 | 431.412500 | 431.437500 | 435.925000 | 430.250000 | 430.950000 | 431.037500 | 430.062500 | 431.225000 | 432.637500 | 430.225000 | 430.800000 | 431.275000 | 430.125000 | 430.350000 | 430.387500 | 430.387500 | 430.725000 | 431.325000 | 431.350000 | 430.025000 | 430.125000 | 431.287500 | 430.012500 | 430.212500 | 430.375000 | 430.012500 | 430.050000 | 430.100000","431.6375 | 431.6625 | 431.75 | 431.775 | 430.5625 | 435.5625 | 435.575 | 435.65 | 432.9125 | 431.675 | 431.7125 | 435.325 | 435.375 | 430.8875 | 432.875 | 433.0125 | 433.0375 | 435.925 | 431.85 | 430.95 | 432.6625 | 431.6625 | 432.825 | 432.6375 | 431.825 | 435.8 | 432.875 | 431.725 | 431.95 | 431.9875 | 431.9875 | 435.4 | 432.925 | 432.95 | 431.625 | 431.725 | 432.8875 | 431.6125 | 435.2125 | 431.975 | 435.0125 | 435.05 | 431.7",BO-IR4UY,430.037500,431.6375,RN-RU4-2,430.100000,431.7
16,EmiliaRoma-A-VHF,"BO-V130 | BO-V150 | BO-IR4H | BO-IR4BO | BO-IR4T | BO-R5 | FC-R0a-2 | FC-IR4F | FC-IR4I | FC-IR4UCG | FE-IR4UM | FE-IR4BD | FE-IR4C | MO-IK4XQC | MO-IW1GIW | MO-IR4A | MO-IR4LM | MO-IR4G | PC-IR4B | PR-IR4E | PR-IR4M | RA-IU4HNI | RA-IR4UBS | RA-IR4J | RE-IK4LFI | RE-IR4K | RN-IR4D | RN-IR4AU","144.612500 | 144.862500 | 145.637500 | 145.662500 | 145.687500 | 145.725000 | 145.612500 | 145.650000 | 145.737500 | 145.925000 | 145.587500 | 145.650000 | 145.775000 | 144.662500 | 145.425000 | 145.600000 | 145.762500 | 145.787500 | 145.687500 | 145.675000 | 145.737500 | 144.812500 | 144.937500 | 145.712500 | 144.850000 | 145.712500 | 145.600000 | 145.687500","144.6125 | 144.8625 | 145.0375 | 145.0625 | 145.0875 | 145.125 | 145.0125 | 145.05 | 145.1375 | 145.925 | 144.9875 | 145.05 | 145.175 | 144.6625 | 145.425 | 145 | 145.1625 | 145.1875 | 145.0875 | 145.075 | 145.1375 | 144.8125 | 144.9375 | 145.1125 | 144.85 | 145.1125 | 145 | 145.0875",BO-V130,144.612500,144.6125,RN-IR4AU,145.687500,145.0875
17,EmiliaRoma-D,"BO-IR4UCO-BM | FC-IR4UCN-BM | FC-IR4UBW-BM | FE-IQ4EV-BM | FE-IU4MSI-BM | FE-IR4AK-BM | FE-IU4MSI2-BM | MO-IR4UX-IT | MO-IR4MO-BM | PC-IW4ELZ-BM | PC-IR4UCK-BM | PC-IR2UDL-BM | PC-IU4DKT2-BM | PC-IR2UDZ-BM | PR-IR4UAV3-BM | PR-IR4S-BM | RA-IR4UCF-BM | RA-IR4UBY-BM | RE-IR4UA3-D+ | RN-IR4UBK-BM | RN-IR4AX-BM","430.612500 | 430.375000 | 430.912500 | 430.037500 | 430.062500 | 431.462500 | 431.600000 | 430.137500 | 431.475000 | 430.525000 | 430.537500 | 430.675000 | 430.800000 | 430.825000 | 430.387500 | 430.625000 | 430.300000 | 431.287500 | 430.962500 | 430.200000 | 430.862500","435.6125 | 435.375 | 435.9125 | 435.0375 | 431.6625 | 433.0625 | 433.2 | 435.1375 | 433.075 | 435.525 | 435.5375 | 435.675 | 435.8 | 435.825 | 431.9875 | 435.0375 | 435.3 | 432.8875 | 435.9625 | 431.8 | 435.8625",BO-IR4UCO-BM,430.612500,435.6125,RN-IR4AX-BM,430.862500,435.8625
18,FriuliVene-A-UHF,"GO-IR3UCO | GO-IR3UCO2 | GO-IR3UY | PN-IR3UP | PN-IR3UD | PN-RU6 | PN-RU10-2 | PN-IV3MTU2 | TS-IR3UHT | TS-IR3UEZ | UD-IR3UFW | UD-IR3UE | UD-IR3UAB2 | UD-IR3UFF | UD-U82 | UD-IZ3WTX","431.225000 | 431.225000 | 431.362500 | 430.025000 | 430.125000 | 430.150000 | 430.250000 | 431.050000 | 430.037500 | 431.387500 | 430.050000 | 430.175000 | 430.200000 | 430.437500 | 431.025000 | 431.575000","432.825 | 432.825 | 432.9625 | 431.625 | 431.725 | 431.75 | 431.85 | 431.05 | 431.6375 | 432.9875 | 431.65 | 431.775 | 431.8 | 430.4375 | 431.025 | 435.575",GO-IR3UCO,431.225000,432.825,UD-IZ3WTX,431.575000,435.575
19,FriuliVene-A-VHF,"GO-R2a-2 | PN-IV3MTU | PN-IR3H | PN-IR3M | TS-IR3ED | TS-IR3L | TS-IR3UFS | UD-IV3FHS | UD-IR3N | UD-IR3Q | UD-IR3O | UD-IR3K","145.662500 | 144.700000 | 145.750000 | 145.775000 | 144.662500 | 145.600000 | 145.712500 | 144.887500 | 145.637500 | 145.662500 | 145.687500 | 145.725000","145.0625 | 144.7 | 145.15 | 145.175 | 144.6625 | 145 | 145.1125 | 144.8875 | 145.0375 | 145.0625 | 145.0875 | 145.125",GO-R2a-2,145.662500,145.0625,UD-IR3K,145.725000,145.125
20,FriuliVene-D,"GO-IR3UJ | GO-IR3UCO3-BM | PN-IR3UW-BM | PN-IR3UBK-IT | TS-IV3JDV | TS-IR3UFS2-BM | TS-IR3UEZ2-BM | TS-IR3UIC | TS-IR3UIM-BM | UD-IR3EF-BM | UD-IR3UAB | UD-IV3NFC-BM | UD-IR3UII-BM | UD-IR3UDB","430.075000 | 431.225000 | 430.150000 | 430.725000 | 430.062500 | 430.925000 | 431.450000 | 433.150000 | 435.187500 | 145.587500 | 145.612500 | 430.837500 | 431.125000 | 431.262500","431.675 | 432.825 | 431.75 | 435.725 | 435.0625 | 432.525 | 433.05 | 431.55 | 430.1875 | 144.9875 | 145.0125 | 435.8375 | 432.725 | 432.8625",GO-IR3UJ,430.075000,431.675,UD-IR3UDB,431.262500,432.8625
21,Lazio-A-UHF,"FR-IU0LSF | FR-RU3-3 | FR-RU4a | FR-IR0UDA | FR-RU8 | FR-IR0UGJ | FR-IR0UHX | FR-RU10-3 | FR-IR0UGS | LT-IR0UX | LT-IR0UHC | LT-IR0UHB | LT-IR0UFX | LT-IR0UHD | LT-IR0UF | LT-RU9-3 | LT-IR0UHA | LT-RU15-2 | LT-IR0DN2 | LT-IR0UIF | LT-IR0UIF2 | LT-U67 | LT-RU23a | LT-IR0UFW | RI-RU3-4 | RI-IR0UCD | RI-IR0UGM | RI-RU23 | RM-RU1-2 | RM-IR0UFK | RM-IR0UM | RM-IR0UFU | RM-IW0DZT | RM-IR0UEE | RM-IR0UFH | RM-IR0UDU | RM-IZ0RIN2 | RM-IR0UFL | RM-U38 | RM-IR0UJN | RM-IR0UGZ | RM-U66 | RM-RU19 | RM-IR0UHG | RM-RU24 | RM-IR0UFI | RM-RU26 | RM-RU27 | RM-U130 | RM-LP30 | VT-RU10-4 | VT-U59","430.037500 | 430.075000 | 430.112500 | 430.175000 | 430.200000 | 430.225000 | 430.237500 | 430.250000 | 430.450000 | 430.025000 | 430.037500 | 430.075000 | 430.100000 | 430.150000 | 430.200000 | 430.225000 | 430.350000 | 430.375000 | 430.500000 | 430.650000 | 430.800000 | 430.837500 | 431.412500 | 431.575000 | 430.075000 | 430.100000 | 430.175000 | 431.400000 | 430.025000 | 430.125000 | 430.150000 | 430.200000 | 430.250000 | 430.275000 | 430.275000 | 430.300000 | 430.312500 | 430.375000 | 430.475000 | 430.537500 | 430.575000 | 430.825000 | 431.300000 | 431.400000 | 431.425000 | 431.425000 | 431.475000 | 431.500000 | 431.625000 | 433.800000 | 430.250000 | 430.737500","430.0375 | 431.675 | 435.1125 | 431.775 | 435.2 | 431.825 | 431.8375 | 435.25 | 435.45 | 431.625 | 435.0375 | 435.075 | 435.1 | 435.15 | 435.2 | 435.225 | 435.35 | 435.375 | 435.5 | 435.65 | 435.8 | 435.8375 | 433.0125 | 433.175 | 431.675 | 435.1 | 431.775 | 431.4 | 431.625 | 435.125 | 435.15 | 431.8 | 435.25 | 431.875 | 435.275 | 435.3 | 435.3125 | 435.375 | 435.475 | 435.5375 | 435.575 | 435.825 | 432.9 | 433 | 433.025 | 433.025 | 433.075 | 433.1 | 433.225 | 435.4 | 431.85 | 435.7375",FR-IU0LSF,430.037500,430.0375,VT-U59,430.737500,435.7375
22,Lazio-A-VHF,"FR-V18 | FR-V40 | FR-IK0RNR | FR-IR0G | FR-R2a-3 | FR-IZ0VRX | FR-R4-2 | FR-IR0C | FR-IR0D | FR-IR0F | LT-IR0DN | LT-IR0J | LT-R2a-4 | LT-R4-3 | LT-IR0CR | LT-IR0X | LT-IR0AQ | RI-R5-2 | RM-IZ0RIN | RM-IZ0THD | RM-IU0NDT | RM-IR0AAB | RM-IU0FOH | RM-IZ0WLH | RM-IZ0GUW | RM-IR0CF | RM-IR0AA | RM-V34 | RM-IR0CM | RM-IR0CZ | RM-IR0AAX | RM-IR0H | RM-IR0CC | RM-IR0CE | RM-IZ0ERI | RM-IZ0ERI2 | RM-R7a | VT-R6a-4","145.225000 | 145.500000 | 145.562500 | 145.600000 | 145.662500 | 145.687500 | 145.700000 | 145.712500 | 145.750000 | 145.775000 | 145.525000 | 145.600000 | 145.662500 | 145.700000 | 145.737500 | 145.762500 | 145.787500 | 145.725000 | 144.525000 | 144.600000 | 144.675000 | 144.800000 | 144.925000 | 145.312500 | 145.312500 | 145.350000 | 145.375000 | 145.425000 | 145.450000 | 145.575000 | 145.600000 | 145.612500 | 145.625000 | 145.650000 | 145.675000 | 145.675000 | 145.787500 | 145.762500","145.225 | 144.9 | 144.9625 | 145 | 145.0625 | 145.0875 | 145.1 | 145.1125 | 145.15 | 145.175 | 144.925 | 145 | 145.0625 | 145.1 | 145.1375 | 145.1625 | 145.1875 | 145.125 | 144.525 | 144.6 | 144.675 | 144.8 | 144.925 | 145.3125 | 145.3125 | 144.75 | 144.775 | 144.825 | 144.85 | 144.975 | 145 | 145.0125 | 145.025 | 145.05 | 145.075 | 145.075 | 145.1875 | 145.1625",FR-V18,145.225000,145.225,VT-R6a-4,145.762500,145.1625
23,Lazio-D,"FR-IR0UGH-BM | FR-IK0HKA-BM | FR-IZ0VRX2-IT | FR-IR0UFJ-IT | FR-IR0UIB-D+ | FR-IZ0ZIP-IT | LT-IZ0PAP-BM | LT-IR0UFZ-BM | LT-IR0UJM-BM | LT-IR0UFV | LT-IU0BVP-IT | LT-IR0UIP-BM | LT-IU0BVQ-IT | RI-IR0UDE-BM | RI-IK0NGL-BM | RI-IZ0ETE-IT | RM-IR0UN-BM | RM-IR0AAA-BM | RM-IR0UCY-IT | RM-IR0UJN2-BM | RM-IR0UGR-BM | RM-IW0DSR-IT | RM-IR0UAJ-D+ | RM-IZ0OSI-IT | RM-I0NLV2-IT | RM-IZ0LDE | RM-IR0UGA-DI | RM-IR0DU-DI | RM-IR0DR-DI | RM-IR0UAJ2-D+ | RM-IZ0ZTL-IT | VT-IR0AAZ-IT","430.262500 | 430.400000 | 430.687500 | 430.825000 | 430.862500 | 430.962500 | 430.212500 | 430.450000 | 430.525000 | 430.550000 | 430.700000 | 430.750000 | 430.762500 | 430.225000 | 430.850000 | 430.887500 | 430.050000 | 430.325000 | 430.425000 | 430.537500 | 430.550000 | 430.600000 | 430.725000 | 430.750000 | 430.787500 | 430.900000 | 430.937500 | 430.962500 | 430.987500 | 435.725000 | 435.937500 | 430.912500","435.2625 | 435.4 | 435.6875 | 435.825 | 435.8625 | 435.9625 | 435.2125 | 435.45 | 435.525 | 435.55 | 435.7 | 435.75 | 435.7625 | 435.225 | 435.85 | 435.8875 | 431.65 | 435.325 | 435.425 | 435.5375 | 435.55 | 435.6 | 435.725 | 435.75 | 435.7875 | 435.9 | 435.9375 | 435.9625 | 435.9875 | 440.725 | 430.9375 | 435.9125",FR-IR0UGH-BM,430.262500,435.2625,VT-IR0AAZ-IT,430.912500,435.9125
24,Liguria-A-UHF,"GE-RU0a | GE-IR1UR | GE-RU4a-2 | GE-IR1UT | GE-IR1UF | GE-IR1UEK | GE-IR1UA | GE-IR1UDR | GE-IU1KTF | GE-IZ1MLT2 | GE-IR1UHC | GE-U37 | GE-IR1UBZ | GE-U50 | GE-I1GFV2 | GE-IR1UEJ | GE-IW1EYZ | GE-IR1UEC | GE-IZ1FUM2 | GE-U417 | IM-IR1UU | IM-IR1UB2 | IM-RU2a-2 | IM-IR1UM | IM-IR1UGE2 | IM-RU12a | IM-IR1UGT2 | IM-IR1BK2 | SP-IR1UBT | SP-IR1UQ | SP-IR1UGU | SP-IR1CT | SP-IR1UIJ | SV-IR1M2 | SV-RU1a | SV-IR1UX | SV-IR1UV | SV-IR1UJH | SV-IR1UJH2 | SV-U38-2 | SV-IR1UFV2 | SV-IR1UHR | SV-IK1EZX | SV-IK1ZVH | SV-IQ1SV | SV-IW1PPB | SV-IK1NAF","430.012500 | 430.100000 | 430.112500 | 430.125000 | 430.150000 | 430.162500 | 430.175000 | 430.225000 | 430.275000 | 430.412500 | 430.450000 | 430.462500 | 430.575000 | 430.625000 | 430.637500 | 430.650000 | 430.737500 | 431.337500 | 433.487500 | 435.212500 | 430.025000 | 430.050000 | 430.062500 | 430.225000 | 430.287500 | 430.312500 | 430.400000 | 430.937500 | 430.087500 | 430.175000 | 430.362500 | 430.925000 | 431.587500 | 430.025000 | 430.037500 | 430.075000 | 430.175000 | 430.437500 | 430.437500 | 430.475000 | 431.450000 | 431.537500 | 432.625000 | 432.650000 | 432.700000 | 432.750000 | 433.612500","435.0125 | 431.7 | 435.1125 | 431.725 | 431.75 | 435.1625 | 431.775 | 431.825 | 435.275 | 435.4125 | 435.45 | 435.4625 | 435.575 | 435.625 | 435.6375 | 435.65 | 435.7375 | 432.9375 | 433.4875 | 435.2125 | 431.625 | 431.65 | 435.0625 | 431.825 | 431.8875 | 435.3125 | 435.4 | 435.9375 | 431.6875 | 431.775 | 435.3625 | 435.925 | 433.1875 | 431.625 | 431.6375 | 431.675 | 431.775 | 435.4375 | 435.4375 | 435.475 | 433.05 | 433.1375 | 432.625 | 432.65 | 432.7 | 432.75 | 433.6125",GE-RU0a,430.012500,435.0125,SV-IK1NAF,433.612500,433.6125
25,Liguria-A-VHF,"GE-V130-2 | GE-IZ1FUM | GE-V17 | GE-V18-2 | GE-V19 | GE-V25 | GE-I1GFV | GE-V35 | GE-V47-3 | GE-R1a-2 | GE-IR1W | GE-IR1T | IM-IR1U | IM-IR1BK | IM-IR1Y | IM-R3a-3 | IM-R4-4 | IM-R4a | IM-IR1UGT | IM-IR1CX | IM-IR1K | SP-IR1DN | SP-IU1LIQ | SP-IR1DO | SP-R3a-4 | SP-IR1CB | SV-IZ1MKB | SV-IW1GGQ | SV-IR1M | SV-IR1AG | SV-IR1X | SV-IR1UGS | SV-R6a-5 | SV-IR1V | SV-IR1AQ","144.612500 | 144.675000 | 145.212500 | 145.225000 | 145.237500 | 145.312500 | 145.312500 | 145.437500 | 145.587500 | 145.637500 | 145.700000 | 145.725000 | 145.600000 | 145.625000 | 145.650000 | 145.687500 | 145.700000 | 145.712500 | 145.737500 | 145.775000 | 145.787500 | 145.337500 | 145.425000 | 145.612500 | 145.687500 | 145.712500 | 144.725000 | 145.362500 | 145.637500 | 145.662500 | 145.675000 | 145.737500 | 145.762500 | 145.775000 | 145.787500","144.6125 | 144.675 | 145.2125 | 145.225 | 145.2375 | 145.3125 | 145.3125 | 144.8375 | 144.9875 | 145.0375 | 145.1 | 145.125 | 145 | 145.025 | 145.05 | 145.0875 | 145.1 | 145.1125 | 145.1375 | 145.175 | 145.1875 | 145.3375 | 145.425 | 145.0125 | 145.0875 | 145.1125 | 144.725 | 144.7625 | 145.0375 | 145.0625 | 145.075 | 145.1375 | 145.1625 | 145.175 | 145.1875",GE-V130-2,144.612500,144.6125,SV-IR1AQ,145.787500,145.1875
26,Liguria-D,"GE-IZ1MLT-BM | GE-IR1UBY-IT | GE-IR1DF-IT | GE-IR1UHT-IT | IM-IR1UB-BM | IM-IR1UGE-BM | IM-IW1QLH-BM | IM-IR1UHD-BM | IM-IR1UHO-BM | SP-IR1UFQ-BM | SP-IR1UJM-BM | SV-IR1UGO-BM | SV-IR1UDK-BM | SV-IR1UCX-BM | SV-IR1UFV-BM","430.412500 | 430.600000 | 430.725000 | 430.925000 | 430.050000 | 430.287500 | 430.337500 | 430.412500 | 430.962500 | 430.300000 | 430.550000 | 430.525000 | 430.887500 | 430.937500 | 431.450000","435.4125 | 435.6 | 435.725 | 435.925 | 431.65 | 431.8875 | 435.3375 | 435.4125 | 435.9625 | 435.3 | 435.55 | 435.525 | 435.8875 | 432.5375 | 433.05",GE-IZ1MLT-BM,430.412500,435.4125,SV-IR1UFV-BM,431.450000,433.05
27,Lombardia-A-UHF,"BG-IR2UF | BG-IR2UDC | BG-IR2UCI | BG-RU13 | BG-RU17 | BG-IK2ILJ2 | BG-IR2UK | BG-U438 | BS-IR2UAZ2 | BS-IR2UFP | BS-IR2UFI | BS-IR2UFK | BS-IW2KPM | BS-IW2KPM2 | BS-IR2UFL | BS-RU26a | BS-U409 | CO-IR2UG | CO-IR2UDO | CO-U60 | CO-IR2UGQ | CO-IR2UBX | CO-U281 | CO-U457 | CR-IW2GUI | CR-IW2GUI2 | LC-IR2UDG | LC-RU13a | LC-IR2UAY | MB-LP21 | MI-IR2UI | MI-IR2UI2 | MI-IR2UGC | MI-IR2UM | MI-IR2UGD | MI-IZ2AIZ | MI-IR2UGW | MI-IR2UEH | MI-IR2UEZ | MI-IR2UFW | MI-IU2CIQ2 | PV-IQ2YR | PV-IR4UC | PV-RU10-5 | PV-IR2UEF | PV-IR2UDU | PV-IR2UGN2 | SO-RU7-3 | SO-RU11 | SO-IW2MGZ3 | VA-IR2UGM | VA-IQ2BJ | VA-RU29a | VA-IW2NOO","430.150000 | 430.162500 | 430.200000 | 430.325000 | 431.250000 | 431.312500 | 431.675000 | 435.475000 | 430.275000 | 430.525000 | 430.662500 | 430.687500 | 431.162500 | 431.162500 | 431.187500 | 431.487500 | 435.112500 | 430.025000 | 430.187500 | 430.750000 | 431.162500 | 432.525000 | 433.512500 | 435.712500 | 430.025000 | 431.250000 | 430.075000 | 430.337500 | 431.575000 | 433.575000 | 430.050000 | 430.050000 | 430.100000 | 430.175000 | 430.212500 | 430.262500 | 430.287500 | 430.312500 | 430.562500 | 431.000000 | 431.237500 | 430.062500 | 430.075000 | 430.250000 | 431.250000 | 431.300000 | 431.400000 | 430.175000 | 430.275000 | 435.275000 | 431.450000 | 431.550000 | 431.562500 | 433.625000","431.75 | 431.7625 | 431.8 | 431.925 | 432.85 | 432.9125 | 430.075 | 431.1 | 431.875 | 435.525 | 435.6625 | 435.6875 | 431.1625 | 431.1625 | 432.7875 | 433.0875 | 435.1125 | 431.625 | 431.7875 | 435.75 | 432.7625 | 432.525 | 433.5125 | 431.7125 | 431.625 | 431.25 | 431.675 | 435.3375 | 433.175 | 433.575 | 431.65 | 431.65 | 431.7 | 431.775 | 431.8125 | 435.2625 | 437.8875 | 431.9125 | 432.1625 | 431 | 432.8375 | 431.6625 | 431.675 | 431.85 | 432.85 | 432.9 | 433 | 431.775 | 435.275 | 435.275 | 433.05 | 433.15 | 433.1625 | 433.625",BG-IR2UF,430.150000,431.75,VA-IW2NOO,433.625000,433.625
28,Lombardia-A-VHF,"BG-IR2AT | BG-IR2UFC | BG-IW2KNH | BG-IR2CN | BG-IR2AH | BG-IR2F | BG-IR2AB | BG-IR2Z | BS-IR2UCK | BS-V17-2 | BS-IR2UAZ | BS-V19-2 | BS-IR2HFP | BS-IR2A | BS-R3a-5 | BS-IW2MGZ | BS-IR2Q | BS-IR2DI | BS-IR2H | CO-V28 | CO-IR2AZ | CO-IR2I | CO-IR2P | CO-IR2DL | CO-IR2G | LC-IR2UED2 | LC-IW2OGY | LC-IW2HNB | MI-IR2UEI | MI-IU2EZO | MI-IW2LGC | MI-IR2UFE | MI-IW2NBW | MI-IK2LFH | MI-IW2LGC2 | MI-IR2UFV | MI-IR2C | MI-IR2AA | PV-IR2DK | PV-IR4P | SO-V137 | SO-IU2DWL | SO-IW2MGZ2 | SO-IW2ETR | SO-V47-4 | SO-IW2EOF | SO-IR2E | SO-R3a-6 | SO-IR2E2 | SO-IW2FZR | SO-R6-2 | SO-IR2AX | SO-R7a-2 | VA-V133 | VA-IK2LFF | VA-IU2CSY | VA-IZ2YGG3 | VA-IR2UEZ2 | VA-R2a-5 | VA-IR2D","144.575000 | 144.650000 | 144.825000 | 145.587500 | 145.600000 | 145.700000 | 145.775000 | 145.787500 | 144.562500 | 145.212500 | 145.212500 | 145.237500 | 145.337500 | 145.625000 | 145.687500 | 145.700000 | 145.750000 | 145.762500 | 145.787500 | 145.350000 | 145.637500 | 145.662500 | 145.687500 | 145.712500 | 145.787500 | 144.665000 | 145.237500 | 145.337500 | 144.367500 | 144.512500 | 144.587500 | 144.600000 | 144.637500 | 144.662500 | 144.850000 | 144.862500 | 145.725000 | 145.750000 | 144.725000 | 145.650000 | 144.700000 | 144.862500 | 145.275000 | 145.337500 | 145.587500 | 145.600000 | 145.662500 | 145.687500 | 145.725000 | 145.725000 | 145.750000 | 145.775000 | 145.787500 | 144.650000 | 144.762500 | 144.900000 | 144.912500 | 145.587500 | 145.662500 | 145.737500","144.875 | 144.65 | 144.825 | 145.8875 | 145 | 145.1 | 145.175 | 145.1875 | 144.5625 | 145.2125 | 144.6125 | 145.2375 | 145.3375 | 145.025 | 145.0875 | 145.1 | 145.15 | 145.1625 | 145.1875 | 145.35 | 145.0375 | 145.0625 | 145.0875 | 145.1125 | 145.1875 | 144.665 | 145.2375 | 145.3375 | 144.3675 | 144.5125 | 144.5875 | 144.6 | 144.6375 | 144.6625 | 144.85 | 144.8625 | 145.125 | 145.15 | 144.725 | 145.05 | 144.7 | 144.8625 | 145.275 | 145.3375 | 144.9875 | 145 | 145.0625 | 145.0875 | 145.125 | 145.125 | 145.15 | 145.175 | 145.1875 | 144.65 | 144.7625 | 144.9 | 144.9125 | 144.9875 | 145.0625 | 145.1375",BG-IR2AT,144.575000,144.875,VA-IR2D,145.737500,145.1375
29,Lombardia-D,"BG-IR2UDP-BM | BG-IR2DP-BM | BG-IK2ILJ-BM | BG-IR2UEW-BM | BG-IR2UED-BM | BG-IR2UFX-BM | BS-IR2DM-BM | BS-IR2UCS-BM | BS-IR2UDK-BM | BS-IR2UDJ-BM | BS-IR2UFZ-BM | BS-IR2UFG-BM | BS-IR2UFR-BM | BS-IR2UFF-BM | BS-IR2UFS-BM | CO-IR2UGV-BM | CO-IR2UBA-D+ | CO-IR2UB-BM | LC-IR2UDM-BM | LC-IW2KYI-BM | MI-IR2CT-BM | MI-IK2LFH2-IT | MI-IU2CIQ-IT | MI-IK2ILW-BM | PV-IR2UGB-IT | PV-IR2UDS-IT | PV-IR2UGN-BM | SO-IK2ZLJ-BM | VA-IR2DO-IT | VA-IR2UCZ-BM | VA-IR2UGF-IT | VA-IR2UD-BM | VA-IZ2TWX-IT | VA-IU2KAM-BM | VA-IR2CO-IT | VA-IQ2BJ2-BM","430.437500 | 431.262500 | 431.312500 | 431.412500 | 431.512500 | 431.537500 | 145.587500 | 430.250000 | 430.337500 | 430.362500 | 431.237500 | 431.387500 | 431.525000 | 431.550000 | 431.587500 | 430.062500 | 430.712500 | 430.775000 | 144.625000 | 430.975000 | 430.350000 | 430.962500 | 431.237500 | 431.462500 | 430.850000 | 431.375000 | 431.400000 | 430.062500 | 145.775000 | 430.050000 | 430.087500 | 430.125000 | 430.675000 | 430.887500 | 430.937500 | 431.550000","435.4375 | 432.8625 | 432.9125 | 433.0125 | 433.1125 | 433.1375 | 144.9875 | 431.85 | 431.9375 | 431.9625 | 432.8375 | 432.9875 | 433.125 | 433.15 | 433.1875 | 435.0625 | 435.7125 | 432.375 | 145.9875 | 435.975 | 431.95 | 435.9625 | 432.8375 | 433.0625 | 435.85 | 432.975 | 433 | 435.0625 | 145.175 | 431.65 | 435.0875 | 431.7125 | 435.675 | 435.8875 | 435.9375 | 433.15",BG-IR2UDP-BM,430.437500,435.4375,VA-IQ2BJ2-BM,431.550000,433.15
30,Marche-A-UHF,"AN-IR6UK2 | AN-IR6UCT | AN-IR6UA | AN-IR6UI | AN-IR6US | AN-IR6UK4 | AN-IR6BC2 | AN-IR6UBF | AP-IR6UG | MC-IR6UL | MC-IR6UCQ | PU-IR6UDV | PU-IR6UDV2 | PU-IR6UDV3 | PU-IU6FOW | PU-IR6UJ | PU-IR6UAC","430.050000 | 430.112500 | 430.175000 | 430.200000 | 430.225000 | 430.375000 | 431.550000 | 431.587500 | 430.025000 | 430.075000 | 431.600000 | 430.112500 | 430.112500 | 430.112500 | 430.450000 | 431.387500 | 431.525000","431.65 | 431.7125 | 431.775 | 431.8 | 431.825 | 431.975 | 433.15 | 433.1875 | 431.625 | 431.675 | 433.2 | 431.7125 | 431.7125 | 431.7125 | 435.45 | 432.9875 | 433.125",AN-IR6UK2,430.050000,431.65,PU-IR6UAC,431.525000,433.125
31,Marche-A-VHF,"AN-IR6UK | AN-IR6Y | AN-IR6BC | AN-IR6Y2 | AN-IR6J | AN-IR6BH | AP-IR6B | AP-IR6H | AP-IR6BS | FM-R1a-3 | MC-V137-2 | MC-IR6C | PU-V20-2 | PU-IR6A","145.612500 | 145.650000 | 145.650000 | 145.650000 | 145.700000 | 145.725000 | 145.600000 | 145.637500 | 145.712500 | 145.637500 | 144.700000 | 145.675000 | 145.250000 | 145.625000","145.0125 | 145.05 | 145.05 | 145.05 | 145.1 | 145.125 | 145 | 145.0375 | 145.1125 | 145.0375 | 144.7 | 145.075 | 145.25 | 145.025",AN-IR6UK,145.612500,145.0125,PU-IR6A,145.625000,145.025
32,Marche-D,"AN-IR6UAG-BM | AN-IR6UK3-IT | AN-IK6DIO-BM | AN-IR6UI2-BM | AN-IR6UK5 | MC-IR6UCW-IT | MC-IW6DRY-IT | PU-IR6UDV4-IT | PU-IW6CNM-BM | PU-IR6UCZ-BM | PU-IR6UDA-BM","430.287500 | 430.375000 | 430.712500 | 430.950000 | 431.437500 | 430.387500 | 430.900000 | 430.137500 | 430.437500 | 430.962500 | 430.987500","435.8875 | 431.975 | 435.7125 | 435.95 | 433.0375 | 435.3875 | 435.9 | 431.7375 | 435.4375 | 435.9625 | 435.9875",AN-IR6UAG-BM,430.287500,435.8875,PU-IR6UDA-BM,430.987500,435.9875
33,Molise-A-UHF,"CB-IR8UDH | CB-RU6a-2 | IS-RU6-2 | IS-IR8UBM","430.125000 | 430.162500 | 430.150000 | 430.175000","431.725 | 431.7625 | 435.15 | 431.775",CB-IR8UDH,430.125000,431.725,IS-IR8UBM,430.175000,431.775
34,Molise-A-VHF,"CB-IR8A | CB-R3a-7","145.612500 | 145.687500","145.0125 | 145.0875",CB-IR8A,145.612500,145.0125,CB-R3a-7,145.687500,145.0875
35,Piemonte-A-UHF,"AL-RU2a-3 | AL-RU8-2 | AL-IR1UD | AL-IR1UFC | AL-IR1UIZ | AL-U61 | AL-IR2UGJ2 | AL-IR1UGL | AL-IR1UCP | AT-RU5 | AT-RU7-4 | AT-RU13a-2 | AT-RU13a-3 | AT-IR1UBS | AT-IQ1MN | AT-U63 | CN-IR1UHW | CN-IR1UZ | CN-IR1UGB | CN-IR1UGK | CN-IR1UGJ | CN-RU11-2 | CN-IR1UGI | CN-IR1UHQ | CN-IR1UIL | CN-IR1UGN | CN-IK1JTD | CN-U48 | CN-IZ1TTU | NO-RU30a | NO-U259 | TO-RU1-3 | TO-IR1UHU | TO-RU10-6 | TO-IR1UIB | TO-IR1UDP | TO-IR1UDT | TO-IQ1GJ | TO-IR1UFB | TO-IR1DT | TO-IR1UJK | TO-IR1DT2 | TO-IZ1DSJ2 | TO-U82-2 | TO-RU16a | VB-IR1UGX | VB-IR1UJL | VB-IR1UCQ | VB-IR1UGD | VB-IR1UGW | VB-IR1UIX","430.062500 | 430.200000 | 430.225000 | 430.362500 | 430.487500 | 430.762500 | 430.800000 | 431.425000 | 431.462500 | 430.125000 | 430.175000 | 430.337500 | 430.337500 | 430.450000 | 430.537500 | 430.787500 | 430.050000 | 430.075000 | 430.212500 | 430.237500 | 430.262500 | 430.275000 | 430.287500 | 430.300000 | 430.412500 | 430.425000 | 430.450000 | 430.600000 | 430.650000 | 431.587500 | 433.237500 | 430.025000 | 430.150000 | 430.250000 | 430.312500 | 430.350000 | 430.500000 | 430.550000 | 430.550000 | 430.612500 | 430.612500 | 430.612500 | 430.800000 | 431.025000 | 431.237500 | 430.025000 | 430.087500 | 430.162500 | 430.212500 | 431.525000 | 431.600000","431.6625 | 431.8 | 431.825 | 431.9625 | 435.4875 | 435.7625 | 435.8 | 433.025 | 433.0625 | 435.125 | 431.775 | 435.3375 | 435.3375 | 435.45 | 435.5375 | 435.7875 | 435.05 | 431.675 | 431.8125 | 431.8375 | 431.8625 | 431.875 | 431.8875 | 431.9 | 435.4125 | 435.425 | 435.45 | 435.6 | 435.65 | 433.1875 | 433.2375 | 431.625 | 431.75 | 435.25 | 435.3125 | 435.35 | 435.5 | 435.55 | 435.55 | 435.6125 | 435.6125 | 435.6125 | 435.8 | 431.025 | 432.8375 | 431.625 | 435.0875 | 431.7625 | 431.8125 | 433.125 | 437.95",AL-RU2a-3,430.062500,431.6625,VB-IR1UIX,431.600000,437.95
36,Piemonte-A-VHF,"AL-V122 | AL-V127 | AL-IU1FIG | AL-IR2UGJ | AL-IU1GAA | AL-IR1E | AL-R6-3 | AL-R6a-6 | AL-R7 | AT-IR1DH | AT-R1a-4 | AT-IR1CI | AT-IR1J | AT-R5a-3 | BI-IR1VM | CN-IZ1MJM | CN-V26 | CN-IU1HHK | CN-IR1DD | CN-IR1CL | CN-IR1D | CN-R2a-6 | CN-IR1B | CN-IR1I | CN-IZ1PNY | NO-IZ1KGH | NO-IZ1ONC | NO-IR2DN | TO-IR1DQ | TO-V131 | TO-V137-3 | TO-R0-2 | TO-IR1A2 | TO-IR1UDB | TO-IR1CA | TO-IR1Q | TO-IR1F | TO-R5-3 | TO-R6a-7 | TO-IR1EB | TO-IR1UCW | VB-IZ1UQG | VB-IW1DBK | VB-IR1DW | VB-IR1P | VB-IR1G | VB-IR1L | VB-IR1CM | VC-IW1GGS","144.512500 | 144.575000 | 144.937500 | 145.237500 | 145.475000 | 145.687500 | 145.750000 | 145.762500 | 145.775000 | 145.287500 | 145.637500 | 145.662500 | 145.712500 | 145.737500 | 145.600000 | 144.700000 | 145.325000 | 145.487500 | 145.575000 | 145.612500 | 145.625000 | 145.662500 | 145.750000 | 145.762500 | 145.787500 | 144.675000 | 145.337500 | 145.637500 | 144.600000 | 144.625000 | 144.700000 | 145.600000 | 145.600000 | 145.637500 | 145.650000 | 145.687500 | 145.700000 | 145.725000 | 145.762500 | 145.762500 | 145.787500 | 144.925000 | 144.925000 | 145.587500 | 145.612500 | 145.700000 | 145.750000 | 145.762500 | 144.862500","144.5125 | 144.575 | 144.9375 | 145.2375 | 144.875 | 145.0875 | 145.15 | 145.1625 | 145.175 | 144.6875 | 145.0375 | 145.0625 | 145.1125 | 145.1375 | 145 | 144.7 | 145.325 | 144.8875 | 144.975 | 145.0125 | 145.025 | 145.0625 | 145.15 | 145.1625 | 145.1875 | 144.675 | 145.3375 | 145.0375 | 144.6 | 144.625 | 144.7 | 145 | 145 | 145.0375 | 145.05 | 145.0875 | 145.1 | 145.125 | 145.1625 | 145.1625 | 145.1875 | 144.925 | 144.925 | 144.9875 | 145.0125 | 145.1 | 145.15 | 145.1625 | 144.8625",AL-V122,144.512500,144.5125,VC-IW1GGS,144.862500,144.8625
37,Piemonte-D,"AL-IR1UGF-BM | AL-IR1UIW-BM | AL-IZ1MLB-BM | AL-IZ1NGU-BM | AL-IR1UIV-BM | AL-IR1UHF-BM | AL-IW1GHR-BM | AL-IU1FJU-BM | AT-IR1UIA-IT | AT-IR1UJC-IT | CN-IK1VQO-BM | CN-I1YYG-BM | TO-IR1A-BM | TO-IR1UCW2-BM | TO-IW1GHE-BM | TO-IW1DGK-BM | TO-IW1ELM-BM | TO-IR1UJJ-BM | TO-IR1UBR-BM | TO-IZ1KGA-BM | TO-IW1GLE-BM | TO-IR1CS-BM | TO-IZ1DSJ-BM | TO-IZ1NHA-BM | TO-IW1BEB-BM | TO-IW1GEU-BM | TO-IU1HGY-BM | TO-I1YRB-DI | VB-IR1UIQ-IT","430.012500 | 430.512500 | 430.687500 | 430.787500 | 430.875000 | 430.912500 | 430.975000 | 433.450000 | 430.087500 | 430.962500 | 430.387500 | 431.325000 | 145.600000 | 145.787500 | 430.000000 | 430.000000 | 430.162500 | 430.325000 | 430.525000 | 430.700000 | 430.725000 | 430.750000 | 430.800000 | 430.800000 | 430.812500 | 430.825000 | 430.862500 | 430.962500 | 430.587500","435.0125 | 435.5125 | 435.6875 | 435.7875 | 435.875 | 435.9125 | 435.975 | 433.45 | 435.0875 | 435.9625 | 437.9875 | 432.925 | 145 | 145.1875 | 435 | 434.5995 | 435.1625 | 435.325 | 435.525 | 435.7 | 435.725 | 435.75 | 435.8 | 435.8 | 435.8125 | 435.825 | 435.8625 | 435.9625 | 435.5875",AL-IR1UGF-BM,430.012500,435.0125,VB-IR1UIQ-IT,430.587500,435.5875
38,Puglia-A-UHF,"BA-IR7UB | BA-IR7UAX2 | BA-RU7-5 | BA-RU9a | BA-IR7UJ | BA-IR7UBZ | BR-IR7BY2 | BR-IZ7DZO | BR-U154 | BT-IR7UF | BT-IR7UCG | FG-RU9-4 | LE-IU7MNK | TA-RU2-3 | TA-IR7UBJ | TA-IR7UAB | TA-RU5-2 | TA-IW7EGY | TA-IQ7ET2","430.050000 | 430.150000 | 430.175000 | 430.237500 | 430.262500 | 430.350000 | 430.150000 | 430.400000 | 431.925000 | 430.125000 | 430.475000 | 430.225000 | 430.900000 | 430.050000 | 430.075000 | 430.112500 | 430.125000 | 430.200000 | 432.675000","435.05 | 431.75 | 431.775 | 431.8375 | 435.2625 | 431.95 | 435.15 | 430.4 | 430.325 | 431.725 | 435.475 | 431.825 | 430.9 | 431.65 | 431.675 | 435.1125 | 431.725 | 435.2 | 432.675",BA-IR7UB,430.050000,435.05,TA-IQ7ET2,432.675000,432.675
39,Puglia-A-VHF,"BA-V18-3 | BA-R0a-3 | BA-R1 | BA-R2 | BA-IR7UAX | BA-IR7B | BR-IW7ED | BR-IZ7UJZ | BR-IZ7UJZ2 | BR-IR7BY | BR-V47-5 | BR-IR7BL | BR-R5-4 | BT-IR7K | FG-IU7EPS | FG-IR7UG | FG-IR7AZ | FG-IU7MNA | FG-IR7A | LE-IZ7ZIT | LE-IZ7OHH | LE-IU7IGU | LE-IK7YTQ | LE-IK7YTQ2 | LE-IR7BN | LE-V141 | LE-IR7H | LE-IR7E | LE-IR7E2 | LE-IR7G | TA-IR7DD | TA-IR7BZ | TA-IR7L | TA-IR7C | TA-IR7BD | TA-IR7BO | TA-IR7BA","145.225000 | 145.612500 | 145.625000 | 145.650000 | 145.737500 | 145.750000 | 144.650000 | 144.775000 | 145.437500 | 145.575000 | 145.587500 | 145.600000 | 145.725000 | 145.737500 | 144.450000 | 145.550000 | 145.575000 | 145.575000 | 145.775000 | 144.000000 | 144.575000 | 144.637500 | 144.675000 | 144.675000 | 144.725000 | 144.750000 | 145.625000 | 145.750000 | 145.750000 | 145.787500 | 144.800000 | 145.612500 | 145.637500 | 145.700000 | 145.725000 | 145.737500 | 145.762500","145.225 | 145.0125 | 145.025 | 145.05 | 145.1375 | 145.15 | 144.65 | 144.775 | 144.8375 | 144.975 | 144.9875 | 145 | 145.125 | 145.1375 | 144.45 | 144.95 | 144.975 | 144.975 | 145.175 | 144 | 144.575 | 144.6375 | 144.675 | 144.675 | 144.725 | 144.75 | 145.025 | 145.15 | 145.15 | 145.1875 | 144.8 | 145.0125 | 145.0375 | 145.1 | 145.125 | 145.1375 | 145.1625",BA-V18-3,145.225000,145.225,TA-IR7BA,145.762500,145.1625
40,Puglia-D,"BA-IZ7ECT-IT | BA-IR7UBU-IT | BA-IW7DBM-IT | BA-IK7SUO-IT | BA-IZ7ELR-IT | BA-IZ7ZHD-IT | BA-IZ7ZHD2-IT | BR-IZ7ELR2-IT | BR-IZ7UJZ3-BM | BT-IZ7ELR3-IT | BT-IU7JYJ-BM | FG-IR7UCB-BM | FG-IU7MNA2-IT | FG-IR7BH-IT | LE-IR7UBL-IT | LE-IR7UE-IT | LE-IZ7JWR-BM | LE-IW7DIG-IT | TA-IR7UCD-BM | TA-IZ7ELR4-IT | TA-IZ7AUH-BM | TA-IQ7ET-BM | TA-IR7UAB2-BM","430.087500 | 430.250000 | 430.575000 | 430.612500 | 430.662500 | 430.687500 | 430.887500 | 430.187500 | 430.525000 | 430.487500 | 430.687500 | 430.325000 | 430.425000 | 431.400000 | 430.012500 | 430.050000 | 430.575000 | 430.750000 | 430.425000 | 430.462500 | 430.612500 | 430.950000 | 435.112500","435.0875 | 435.25 | 437.975 | 435.6125 | 435.6625 | 435.6875 | 432.4875 | 435.1875 | 435.525 | 435.4875 | 435.6875 | 435.325 | 435.425 | 433 | 435.0125 | 431.65 | 435.575 | 435.75 | 435.425 | 435.4625 | 435.6125 | 435.95 | 430.1125",BA-IZ7ECT-IT,430.087500,435.0875,TA-IR7UAB2-BM,435.112500,430.1125
41,Sardegna-A-UHF,"CA-IR0UCS | CA-IR0UIW | CA-IR0UDR | CA-IR0UDS | CA-RU10-7 | CA-IR0DA | CA-IR0UAP2 | CA-U154-2 | CA-LP18 | CA-IR0DA2 | NU-RU2-4 | NU-IR0UGX | NU-RU7-6 | NU-IR0CX | NU-IR0UGI | OR-IR0UIY | OR-IR0UQ | SS-RU1-4 | SS-IS0FFD | SS-U32 | SS-IR0UDY2 | SU-IR0EO2","430.050000 | 430.100000 | 430.100000 | 430.150000 | 430.250000 | 430.675000 | 430.700000 | 431.925000 | 433.500000 | 435.675000 | 430.050000 | 430.150000 | 430.175000 | 431.600000 | 431.775000 | 430.125000 | 430.200000 | 430.025000 | 430.100000 | 430.400000 | 430.725000 | 430.125000","431.65 | 435.1 | 431.7 | 435.15 | 431.85 | 435.675 | 435.7 | 430.325 | 433.5 | 430.675 | 431.65 | 431.75 | 431.775 | 433.2 | 430.175 | 431.725 | 431.8 | 431.625 | 435.1 | 435.4 | 435.725 | 431.725",CA-IR0UCS,430.050000,431.65,SU-IR0EO2,430.125000,431.725
42,Sardegna-A-VHF,"CA-IW0UQF | CA-IS0AML | CA-IR0EK | CA-IS0CLO | CA-IR0EP | CA-IS0IQD | CA-IS0YXL | CA-V40-2 | CA-IR0EO | CA-IR0U | CA-R3-2 | CA-IW0URG | NU-IS0HNS | NU-R1-2 | NU-R3-3 | NU-R5-5 | NU-R7-2 | OR-R6-4 | SS-V149 | SS-R0-3 | SS-R2a-7 | SS-R4-5 | SS-IS0SWW | SU-R1-3","144.612500 | 144.612500 | 145.250000 | 145.300000 | 145.300000 | 145.350000 | 145.350000 | 145.500000 | 145.625000 | 145.650000 | 145.675000 | 145.725000 | 145.275000 | 145.625000 | 145.675000 | 145.725000 | 145.775000 | 145.750000 | 144.850000 | 145.600000 | 145.662500 | 145.700000 | 145.787500 | 145.625000","144.6125 | 144.6125 | 145.25 | 145.3 | 145.3 | 145.35 | 145.35 | 145.5 | 145.025 | 145.05 | 145.075 | 145.125 | 145.275 | 145.025 | 145.075 | 145.125 | 145.175 | 145.15 | 144.85 | 145 | 145.0625 | 145.1 | 145.1875 | 145.025",CA-IW0UQF,144.612500,144.6125,SU-R1-3,145.625000,145.025
43,Sardegna-D,"CA-IR0UAP-IT | CA-IR0DS-IT | CA-IR0UDB-IT | CA-IS0AYI-IT | CA-IR0DV-D+ | CA-IS0DXX-BM | CA-IS0GQX-BM | NU-IS0XDA-IT | NU-IW0UQF2-IT | OR-IR0UIN-IT | OR-IR0UED-BM | SS-IR0UDY-IT","430.700000 | 430.725000 | 430.737500 | 430.775000 | 430.812500 | 430.837500 | 430.875000 | 430.750000 | 430.787500 | 430.737500 | 430.962500 | 430.725000","435.7 | 435.725 | 435.7375 | 435.775 | 435.8125 | 435.8375 | 435.875 | 435.75 | 435.7875 | 435.7375 | 435.9625 | 435.725",CA-IR0UAP-IT,430.700000,435.7,SS-IR0UDY-IT,430.725000,435.725
44,Sicilia-A-UHF,"AG-RU3-5 | AG-IR9UAJ | CL-IR9UAZ | CL-IR9UAB | CT-RU1-5 | CT-IR9UC | CT-IT9OAX | CT-RU4-3 | CT-IT9OAX2 | CT-IR9BZ2 | CT-IR9UBQ | CT-IT9SWH | CT-IR9UBT | CT-IQ9YO | CT-IR9UCB2 | CT-IR9AUE2 | EN-RU10-8 | EN-IT9XVU3 | ME-IR9UL | ME-IR9UM | ME-IR9UA | ME-RU13-2 | ME-IQ9QS2 | ME-IT9GFD | ME-IR9AUE3 | ME-RU18a | ME-IT9IJI5 | ME-IR9BN | ME-LP5 | ME-U261 | ME-IT9YBI | ME-IT9GFD2 | PA-IR9UG | PA-IR9UBW | PA-IT9HLC | PA-IR9AT | PA-U59-2 | PA-IT9BXY | PA-IR9AUE4 | PA-IQ9IL | RG-IR9UF | SR-IR9O2 | SR-IR9UBI2 | SR-IT9UQI | SR-IT9OPJ2 | TP-IR9UCA | TP-RU4-4 | TP-RU7-7 | TP-RU8-3 | TP-RU12-2","430.075000 | 430.500000 | 430.050000 | 430.150000 | 430.025000 | 430.050000 | 430.075000 | 430.100000 | 430.125000 | 430.125000 | 430.125000 | 430.175000 | 430.400000 | 430.962500 | 431.550000 | 435.925000 | 430.250000 | 430.775000 | 430.075000 | 430.100000 | 430.125000 | 430.325000 | 430.475000 | 430.825000 | 430.925000 | 431.287500 | 431.450000 | 431.625000 | 433.175000 | 433.262500 | 433.312500 | 433.337500 | 430.025000 | 430.125000 | 430.250000 | 430.725000 | 430.737500 | 430.962500 | 431.025000 | 432.675000 | 430.175000 | 430.075000 | 430.125000 | 431.600000 | 433.575000 | 430.050000 | 430.100000 | 430.175000 | 430.200000 | 430.300000","431.675 | 435.5 | 431.65 | 431.75 | 431.625 | 431.65 | 431.675 | 431.7 | 435.125 | 435.125 | 431.725 | 431.775 | 435.4 | 435.9625 | 433.15 | 430.925 | 431.85 | 435.775 | 431.675 | 431.7 | 431.725 | 431.925 | 435.475 | 435.825 | 435.925 | 432.8875 | 433.05 | 430.025 | 433.175 | 433.2625 | 433.3125 | 433.3375 | 431.625 | 435.125 | 435.25 | 435.725 | 435.7375 | 432.5625 | 435.825 | 432.675 | 431.775 | 431.675 | 431.725 | 433.2 | 433.575 | 435.05 | 431.7 | 431.775 | 435.2 | 435.3",AG-RU3-5,430.075000,431.675,TP-RU12-2,430.300000,435.3
45,Sicilia-A-VHF,"AG-IT9ARC | AG-IT9FBN | AG-IT9FZA | AG-IT9XJM | AG-IT9QIO | AG-IW9HOE | AG-IW9HOE2 | AG-IT9ZIL | AG-R1a-5 | AG-R3a-8 | AG-IR9S | AG-IR9H | AG-R7a-3 | CL-IR9I | CL-R3a-9 | CL-IR9BC | CT-V131-2 | CT-IT9AQM | CT-IW9HMQ | CT-IW9CTR | CT-IW9GRL | CT-V30 | CT-IR9BL | CT-IR9AE | CT-IR9BG | CT-IR9BZ | CT-IR9UCB | CT-IR9J | CT-IR9C | CT-R6a-8 | EN-IT9XVU | ME-IT9ELT | ME-V33 | ME-IR9BM | ME-V40-3 | ME-V42 | ME-IT9IJI2 | ME-R0a-4 | ME-IR9AI | ME-IQ9QS | ME-IR9AU | ME-IR9AA | ME-IR9AD | ME-IR9AK | ME-IR9K | PA-V129 | PA-V135-2 | PA-IT9SJY | PA-IT9UOX | PA-R1-4 | PA-IT9CNP | PA-IR9A | PA-IR9M | PA-IR9AX | RG-IR9N | RG-R1a-6 | RG-IR9Z | RG-R7a-4 | SR-IR9UBI | SR-IT9OPJ | SR-IR9O | SR-IR9AR | TP-IR9T | TP-R0-4 | TP-R0a-5 | TP-R1-5 | TP-R1a-7 | TP-IR9AS | TP-IR9L | TP-IR9CA | TP-IR9D","144.600000 | 144.675000 | 144.687500 | 144.750000 | 144.975000 | 145.225000 | 145.375000 | 145.600000 | 145.637500 | 145.687500 | 145.712500 | 145.750000 | 145.787500 | 145.650000 | 145.687500 | 145.775000 | 144.625000 | 144.700000 | 144.862500 | 144.900000 | 144.950000 | 145.375000 | 145.475000 | 145.612500 | 145.662500 | 145.675000 | 145.687500 | 145.700000 | 145.725000 | 145.762500 | 144.925000 | 144.731250 | 145.412500 | 145.437500 | 145.500000 | 145.525000 | 145.575000 | 145.612500 | 145.625000 | 145.637500 | 145.650000 | 145.650000 | 145.662500 | 145.675000 | 145.750000 | 144.600000 | 144.675000 | 144.687500 | 145.375000 | 145.625000 | 145.687500 | 145.700000 | 145.762500 | 145.787500 | 145.600000 | 145.637500 | 145.762500 | 145.787500 | 144.662500 | 145.212500 | 145.675000 | 145.737500 | 145.575000 | 145.600000 | 145.612500 | 145.625000 | 145.637500 | 145.650000 | 145.725000 | 145.737500 | 145.775000","144.6 | 144.675 | 144.6875 | 144.75 | 144.975 | 145.225 | 145.375 | 145 | 145.0375 | 145.0875 | 145.1125 | 145.15 | 145.1875 | 145.05 | 145.0875 | 145.175 | 144.625 | 144.7 | 144.8625 | 144.9 | 144.95 | 144.775 | 144.875 | 145.0125 | 145.0625 | 145.075 | 145.0875 | 145.1 | 145.125 | 145.1625 | 144.925 | 144.73125 | 145.4125 | 145.4375 | 144.9 | 145.525 | 145.575 | 145.0125 | 145.025 | 145.0375 | 145.05 | 145.05 | 145.0625 | 145.075 | 145.15 | 144.6 | 144.675 | 144.6875 | 145.375 | 145.025 | 145.0875 | 145.1 | 145.1625 | 145.1875 | 145 | 145.0375 | 145.1625 | 145.1875 | 144.6625 | 145.2125 | 145.075 | 145.1375 | 144.975 | 145 | 145.0125 | 145.025 | 145.0375 | 145.05 | 145.125 | 145.1375 | 145.175",AG-IT9ARC,144.600000,144.6,TP-IR9D,145.775000,145.175
46,Sicilia-D,"AG-IT9CNT-BM | AG-IT9BFB-BM | AG-IT9CNT2-BM | CT-IR9UBA-BM | CT-IR9UAB2-BM | CT-IW9ARO-BM | CT-IT9SWH2-BM | CT-IT9GAJ-BM | CT-IW9GRL2-BM | CT-IQ9XY-BM | CT-IQ9YO2-BM | EN-IT9XVU2 | ME-IT9YKJ-BM | ME-IT9IJI3-BM | ME-IT9FTD-BM | ME-IR9AK2-BM | ME-IW9GDC-BM | ME-IT9IJI4-IT | PA-IR9UAU-BM | PA-IT9FNG-BM | PA-IW9HRS-BM | PA-IR9AT2-BM | PA-IT9HLC2-D+ | RG-IR9UBV-IT | RG-IR9UNZ-BM | RG-IT9CEU-BM | RG-IT9CCU-BM | RG-IT9CGN-BM | RG-IT9UUT-BM | SR-IR9BQ-BM | TP-IR9AS2-BM | TP-IR9UAH-BM","430.600000 | 430.650000 | 430.750000 | 430.150000 | 430.150000 | 430.287500 | 430.375000 | 430.425000 | 430.725000 | 430.912500 | 430.962500 | 430.350000 | 430.137500 | 430.137500 | 430.150000 | 430.675000 | 431.275000 | 431.450000 | 430.175000 | 430.262500 | 430.712500 | 430.725000 | 430.862500 | 145.650000 | 430.375000 | 430.475000 | 430.475000 | 430.850000 | 430.962500 | 430.162500 | 145.650000 | 430.675000","435.6 | 435.65 | 435.75 | 431.75 | 435.15 | 435.2875 | 435.375 | 435.425 | 435.725 | 435.9125 | 435.9625 | 435.35 | 435.1375 | 430.1375 | 435.15 | 435.675 | 432.875 | 433.05 | 435.175 | 435.2625 | 435.7125 | 435.725 | 435.8625 | 145.05 | 435.375 | 435.475 | 435.475 | 435.85 | 435.9625 | 435.1625 | 145.05 | 435.675",AG-IT9CNT-BM,430.600000,435.6,TP-IR9UAH-BM,430.675000,435.675
47,Toscana-A-UHF,"AR-IR5UBY | AR-IR5AP | AR-IR5UCP | AR-U32-2 | AR-U437 | FI-IR5UB | FI-IR5UD | FI-IR5UCS | FI-IR5UCE | FI-IR5UBN | FI-IR5UCR | FI-IR5UDN2 | FI-IZ5IGB | FI-IZ5IGB2 | FI-IR5UCQ | FI-IR5UCQ2 | FI-IZ5IGB4 | FI-U415 | GR-IR5UBK | GR-IR5UBD | GR-IR5UDI | LI-IR5UDZ | LI-IR5UDJ | LI-IR5BA2 | LI-IR5UDS2 | LU-IR5UE | LU-IR5UE2 | LU-RU12a-2 | MS-RU3a | MS-RU4a-3 | MS-IR5UAV | MS-IR5UDR | MS-RU13-3 | MS-IR5UCZ | PI-IR5UBJ | PI-RU8a | PI-RU9-5 | PI-RU14 | PI-IR5UDL | PI-U38-3 | PI-U40 | PI-IQ5QD | PI-IQ5QD2 | PI-IQ5QD3 | PO-IQ5ZP | PO-IR5UV | PO-U31-2 | PO-U32-3 | PO-U34 | PO-U34-2 | PO-IR5UCW | PO-U147 | PT-RU1-6 | PT-IZ5IOS | PT-IZ5IGB5 | PT-IU5HJU | PT-IR5UCX | SI-IU5FFN | SI-IR5UDG2","430.037500 | 430.125000 | 430.325000 | 430.400000 | 435.462500 | 430.100000 | 430.162500 | 430.212500 | 430.300000 | 430.325000 | 430.362500 | 430.387500 | 430.650000 | 430.775000 | 430.825000 | 430.850000 | 430.975000 | 435.187500 | 430.075000 | 430.350000 | 430.500000 | 430.525000 | 430.650000 | 432.437500 | 432.675000 | 430.200000 | 430.200000 | 430.312500 | 430.087500 | 430.112500 | 430.150000 | 430.237500 | 430.325000 | 431.562500 | 430.050000 | 430.212500 | 430.225000 | 430.350000 | 430.450000 | 430.475000 | 430.500000 | 431.287500 | 431.287500 | 431.612500 | 430.125000 | 430.237500 | 430.387500 | 430.400000 | 430.425000 | 430.425000 | 431.350000 | 431.837500 | 430.025000 | 430.525000 | 430.575000 | 430.600000 | 431.025000 | 430.437500 | 432.687500","431.6375 | 431.725 | 431.925 | 435.4 | 435.4625 | 431.7 | 431.7625 | 431.8125 | 431.9 | 431.925 | 431.9625 | 431.9875 | 435.65 | 435.775 | 435.825 | 435.85 | 435.975 | 435.1875 | 431.675 | 435.35 | 435.5 | 435.525 | 435.65 | 432.4375 | 432.675 | 431.8 | 431.8 | 435.3125 | 431.6875 | 431.7125 | 431.75 | 435.2375 | 431.925 | 433.1625 | 431.65 | 431.8125 | 431.825 | 431.95 | 435.45 | 435.475 | 432.1 | 432.8875 | 432.8875 | 433.2125 | 431.725 | 431.8375 | 435.3875 | 435.4 | 435.425 | 435.425 | 432.95 | 431.8375 | 431.625 | 435.525 | 435.575 | 435.6 | 431.025 | 435.4375 | 432.6875",AR-IR5UBY,430.037500,431.6375,SI-IR5UDG2,432.687500,432.6875
48,Toscana-A-VHF,"AR-IR5K | FI-IK5XMK | FI-IK5BZH | FI-IW5EIA | FI-IR5AG | FI-IR5B | FI-IR5L | GR-IR5AA | GR-IR5F | GR-IR5A | GR-IR5AH | LI-IR5UDS | LI-IR5BA | LI-IZ5EJM | LI-IR5H | LI-IR5AZ | LU-IR5E | LU-IR5AC | MS-IR5AX | MS-R3a-10 | MS-IR5D | MS-IR5G | PI-IZ5EJM2 | PI-V43 | PI-IR5J | PI-IR5J2 | PO-IR5UBE | PO-V136 | PO-V158 | PO-IR5AK | PO-IR5AD | SI-IR5UDG | SI-IR5C","145.612500 | 144.700000 | 144.900000 | 144.950000 | 145.737500 | 145.750000 | 145.787500 | 145.587500 | 145.650000 | 145.675000 | 145.712500 | 144.675000 | 144.762500 | 145.300000 | 145.625000 | 145.725000 | 145.600000 | 145.775000 | 145.637500 | 145.687500 | 145.750000 | 145.775000 | 144.862500 | 145.537500 | 145.700000 | 145.700000 | 144.562500 | 144.687500 | 144.962500 | 145.625000 | 145.725000 | 144.687500 | 145.775000","145.0125 | 144.7 | 144.9 | 144.95 | 145.1375 | 145.15 | 145.1875 | 144.9875 | 145.05 | 145.075 | 145.1125 | 144.675 | 144.7625 | 145.3 | 145.025 | 145.125 | 145 | 145.175 | 145.0375 | 145.0875 | 145.15 | 145.175 | 144.8625 | 144.9375 | 145.1 | 145.1 | 144.5625 | 144.6875 | 144.9625 | 145.025 | 145.125 | 144.6875 | 145.175",AR-IR5K,145.612500,145.0125,SI-IR5C,145.775000,145.175
49,Toscana-D,"AR-IR5UAX-BM | FI-IW5ELP-BM | FI-IK5WJG-BM | FI-IR5UDN-BM | FI-IZ5IGB3-BM | GR-IQ5GR-BM | GR-IZ5QRH-D+ | GR-IQ5IZ-BM | LU-IR5UDK-BM | LU-IU5JAE-BM | MS-IR5UCZ2-BM | PO-IR5UDV-BM | PO-IR5AR-BM | PT-IZ5MXL-BM | PT-IZ5IGB6-BM | SI-IR5UCT-BM | SI-IU5FFN2-BM | SI-IR5UCF-BM | SI-IZ5VSL-BM","431.537500 | 430.062500 | 430.162500 | 430.187500 | 430.775000 | 430.100000 | 430.912500 | 430.962500 | 430.625000 | 430.825000 | 431.562500 | 430.900000 | 430.950000 | 144.962500 | 430.675000 | 430.425000 | 430.525000 | 430.650000 | 430.862500","433.1375 | 435.0625 | 431.7625 | 431.7875 | 435.775 | 435.1 | 435.9125 | 435.9625 | 435.625 | 435.825 | 433.1625 | 435.9 | 435.95 | 144.9625 | 435.675 | 435.425 | 435.525 | 435.65 | 435.8625",AR-IR5UAX-BM,431.537500,433.1375,SI-IZ5VSL-BM,430.862500,435.8625
50,TrentinoAl-A-UHF,"BZ-IR3UHI | BZ-IR3UAN | BZ-U44 | BZ-IR3UFM | BZ-RU18a-2 | BZ-IR3UGD | BZ-IR3UAP | BZ-IR3UGM | BZ-IR3DV2 | BZ-IR3DV3 | BZ-IR3UGF3 | BZ-IR3UGF4 | BZ-IR3UGE2 | TN-IN3GYF | TN-IR3UN | TN-IR3UDX | TN-IR3EQ2 | TN-IR3UI | TN-IR3UJB | TN-RU8a-2 | TN-IW3BYL2 | TN-IR3UEJ | TN-IR3AO | TN-U42 | TN-IN3IFX2 | TN-U72 | TN-IR3UAR | TN-U196 | TN-IN3FPJ2 | TN-IN3UFW","430.075000 | 430.525000 | 430.550000 | 430.575000 | 431.287500 | 431.362500 | 431.375000 | 431.400000 | 431.400000 | 431.525000 | 432.550000 | 435.012500 | 435.012500 | 430.037500 | 430.062500 | 430.112500 | 430.125000 | 430.175000 | 430.200000 | 430.212500 | 430.287500 | 430.475000 | 430.487500 | 430.525000 | 430.837500 | 430.900000 | 431.950000 | 432.450000 | 433.025000 | 433.500000","431.675 | 435.525 | 435.55 | 435.575 | 432.8875 | 432.9625 | 432.975 | 433 | 433 | 433.125 | 432.55 | 435.0125 | 435.0125 | 435.0375 | 431.6625 | 435.1125 | 431.725 | 431.775 | 435.2 | 431.8125 | 435.2875 | 435.475 | 437.8875 | 435.525 | 430.8375 | 435.9 | 431.95 | 435.6 | 433.025 | 433.5",BZ-IR3UHI,430.075000,431.675,TN-IN3UFW,433.500000,433.5
51,TrentinoAl-A-VHF,"BZ-IR3UGF | BZ-IN3EXL | BZ-IN3GID | BZ-IN3HBF | BZ-V22 | BZ-V25-2 | BZ-IR3UGE | BZ-IR3UGF2 | BZ-IR3DV | BZ-IR3R | BZ-IR3UHF | BZ-IR3T | BZ-IR3EB | BZ-IR3V | TN-IN3IFX | TN-V128 | TN-V130-3 | TN-V130-4 | TN-IR3UCD | TN-V156-2 | TN-IN3FPJ | TN-IR3UCU | TN-IW3BYL | TN-V44 | TN-V46 | TN-IN3EEW | TN-IR3Y | TN-IR3Z | TN-R1a-8 | TN-IR3S | TN-IR3ES | TN-IR3AE | TN-R5a-4 | TN-IR3U | TN-IR3EQ | TN-R7a-5","144.675000 | 144.700000 | 144.850000 | 144.925000 | 145.275000 | 145.312500 | 145.537500 | 145.537500 | 145.650000 | 145.675000 | 145.700000 | 145.725000 | 145.750000 | 145.775000 | 144.537500 | 144.587500 | 144.612500 | 144.612500 | 144.700000 | 144.937500 | 145.312500 | 145.337500 | 145.550000 | 145.550000 | 145.575000 | 145.600000 | 145.600000 | 145.625000 | 145.637500 | 145.650000 | 145.675000 | 145.700000 | 145.737500 | 145.750000 | 145.775000 | 145.787500","144.675 | 144.7 | 144.85 | 144.925 | 145.275 | 145.3125 | 145.5375 | 145.5375 | 145.05 | 145.075 | 145.1 | 145.125 | 145.15 | 145.175 | 144.5375 | 144.5875 | 144.6125 | 144.6125 | 144.7 | 144.9375 | 145.3125 | 145.3375 | 144.95 | 144.95 | 144.975 | 144.65 | 145 | 145.025 | 145.0375 | 145.05 | 145.075 | 145.1 | 145.1375 | 145.15 | 145.175 | 145.1875",BZ-IR3UGF,144.675000,144.675,TN-R7a-5,145.787500,145.1875
52,TrentinoAl-D,"BZ-IN3EXL2-BM | BZ-IR3UHF2-BM | BZ-IR3UJJ-IT | BZ-IR3UJH-IT | BZ-IR3UJL-IT | BZ-IR3UGM2-BM | BZ-IR3EB2-BM | BZ-IR3DV4-BM | TN-IN3EQA-BM | TN-IN3ELZ-IT | TN-IR3UDY-IT | TN-IQ3VN-IT","430.400000 | 430.600000 | 430.912500 | 430.937500 | 430.987500 | 431.512500 | 431.525000 | 431.525000 | 430.887500 | 430.925000 | 430.937500 | 430.950000","435.4 | 435.6 | 435.9125 | 435.9375 | 435.9875 | 433.1125 | 433.125 | 433.125 | 435.8875 | 435.925 | 435.9375 | 435.95",BZ-IN3EXL2-BM,430.400000,435.4,TN-IQ3VN-IT,430.950000,435.95
53,Umbria-A-UHF,"PG-IR0UL | PG-IW0RQH | PG-IR0UIQ | PG-IR0UAS | PG-RU8-4 | PG-IR0UAB | PG-IR0BP | PG-IR0UIH | TR-IR0UAQ | TR-IR0CQ","430.025000 | 430.050000 | 430.087500 | 430.175000 | 430.200000 | 430.312500 | 430.687500 | 430.712500 | 430.200000 | 430.250000","431.625 | 435.05 | 431.6875 | 431.775 | 431.8 | 435.3125 | 435.6875 | 435.7125 | 431.8 | 431.85",PG-IR0UL,430.025000,431.625,TR-IR0CQ,430.250000,431.85
54,Umbria-A-VHF,"PG-IR0EI | PG-IR0L | PG-IR0AW | PG-IR0AZ | PG-IR0EF | PG-IR0AP | PG-IR0CT | PG-IR0M | PG-R7a-6 | TR-IQ0TE | TR-IK0NGL2 | TR-IR0K | TR-IR0K2","145.300000 | 145.600000 | 145.625000 | 145.637500 | 145.662500 | 145.687500 | 145.712500 | 145.750000 | 145.787500 | 144.862500 | 144.887500 | 145.612500 | 145.700000","145.3 | 145 | 145.025 | 145.0375 | 145.0625 | 145.0875 | 145.1125 | 145.15 | 145.1875 | 144.8625 | 144.8875 | 145.0125 | 145.1",PG-IR0EI,145.300000,145.3,TR-IR0K2,145.700000,145.1
55,Umbria-D,"PG-I0KMJ-IT | PG-IR0UDZ-BM | PG-IR0EF2-BM | PG-IW0RQJ-BM | TR-IK0NGL3-BM | TR-IR0CQ2-IT | TR-I0KMJ2-IT | TR-IR0UIZ-IT | TR-IR0UEI-IT","430.212500 | 430.437500 | 430.762500 | 430.937500 | 430.012500 | 430.250000 | 430.912500 | 430.937500 | 431.462500","431.8125 | 435.4375 | 435.7625 | 435.9375 | 435.0125 | 431.85 | 435.9125 | 435.9375 | 433.0625",PG-I0KMJ-IT,430.212500,431.8125,TR-IR0UEI-IT,431.462500,433.0625
56,ValleAosta-A-UHF,"AO-U156 | AO-IX1VKK | AO-U158 | AO-IX1VKK2","431.950000 | 431.950000 | 431.975000 | 433.450000","430.35 | 431.95 | 430.375 | 433.45",AO-U156,431.950000,430.35,AO-IX1VKK2,433.450000,433.45
57,ValleAosta-A-VHF,"AO-IX1FYM | AO-R0-5 | AO-IR1N","144.825000 | 145.600000 | 145.750000","144.825 | 145 | 145.15",AO-IX1FYM,144.825000,144.825,AO-IR1N,145.750000,145.15
58,ValleAosta-D,AO-IQ1VD-BM,430.300000,435.3,AO-IQ1VD-BM,430.300000,435.3,AO-IQ1VD-BM,430.300000,435.3
59,Valleaosta-A-VHF,AO-IX1VGS,144.725000,144.725,AO-IX1VGS,144.725000,144.725,AO-IX1VGS,144.725000,144.725
60,Veneto-A-UHF,"BL-IR3UAE | BL-RU2-5 | BL-IR3UEC | BL-IR3UDI | BL-IR3UC | BL-IR3UJC | BL-IU3GQH2 | BL-IU3GQH3 | BL-IR3UIZ | BL-U277 | BL-U277-2 | PD-IR3UB | PD-IR3UBF | PD-IR3UIU | PD-IQ3PY | PD-RU19-2 | PD-RU20 | RO-IR3UCZ | RO-IR3UCN2 | RO-IR3AH | RO-IR3UJM | TV-IR3UCQ | TV-RU5-3 | TV-RU6a-3 | TV-RU11-3 | TV-RU13a-4 | TV-IR3UAC | TV-IR3UAC2 | TV-IZ3KUY | TV-RU26a-2 | TV-IR3UJA | TV-IR3UJA2 | VE-IR3UO | VE-U40-2 | VE-U42-2 | VE-IR3UBL2 | VE-IW3HVB | VI-RU1-7 | VI-IR3UA | VI-IR3UIO | VI-RU13-4 | VI-IR3UBT | VI-IR3UBT2 | VI-IR3UBT3 | VI-IR3UBT4 | VI-IR3UGR | VI-IR3UGQ | VI-IR3KLF | VI-IR3UHK | VI-IR3XW | VI-IR3DK2 | VI-IR3UCG | VI-IR3UHH | VI-IR3UIX2 | VI-IZ3FJM | VR-IR3UG | VR-IR3UQ | VR-IR3UID | VR-IR3UX | VR-I3YBD","430.025000 | 430.050000 | 430.062500 | 430.100000 | 430.187500 | 430.237500 | 430.387500 | 430.512500 | 430.987500 | 433.462500 | 433.462500 | 430.100000 | 430.225000 | 430.287500 | 431.187500 | 431.300000 | 431.325000 | 430.112500 | 430.500000 | 430.675000 | 431.612500 | 430.087500 | 430.125000 | 430.162500 | 430.275000 | 430.337500 | 431.275000 | 431.275000 | 431.350000 | 431.487500 | 431.537500 | 431.575000 | 430.150000 | 430.500000 | 430.525000 | 431.375000 | 431.425000 | 430.025000 | 430.075000 | 430.200000 | 430.325000 | 430.362500 | 430.362500 | 430.362500 | 430.362500 | 430.387500 | 430.437500 | 430.537500 | 430.587500 | 430.787500 | 430.825000 | 431.237500 | 431.400000 | 431.512500 | 431.562500 | 430.025000 | 430.050000 | 430.275000 | 430.412500 | 430.775000","431.625 | 431.65 | 431.6625 | 431.7 | 431.7875 | 435.2375 | 435.3875 | 435.5125 | 435.9875 | 433.4625 | 433.4625 | 431.7 | 431.825 | 431.8875 | 432.7875 | 432.9 | 432.925 | 431.7125 | 435.5 | 435.675 | 433.2125 | 431.6875 | 431.725 | 431.7625 | 431.875 | 431.9375 | 432.875 | 432.875 | 432.95 | 435.4875 | 435.5375 | 435.575 | 431.75 | 435.5 | 435.525 | 432.975 | 433.025 | 431.625 | 431.675 | 431.8 | 431.925 | 431.9625 | 435.3625 | 435.3625 | 431.9625 | 431.9875 | 435.4375 | 435.5375 | 435.5875 | 435.7875 | 435.825 | 432.8375 | 433 | 433.1125 | 433.1625 | 431.625 | 435.075 | 431.875 | 435.4125 | 435.775",BL-IR3UAE,430.025000,431.625,VR-I3YBD,430.775000,435.775
61,Veneto-A-VHF,"BL-IZ3ZOI | BL-IR3DF | BL-IU3GQH | BL-V28-2 | BL-V30-2 | BL-IZ3VCN | BL-V39 | BL-IR3AO2 | BL-R1-6 | BL-IR3BX | BL-IR3F | PD-IR3B | TV-IR3ER | TV-IR3EI | TV-IR3D | VE-IZ3SSQ | VE-IR3E | VE-IR3DR | VI-IU3NMO | VI-IR3BP | VI-IR3DI | VI-IR3A | VI-IR3G | VR-IZ3LBC | VR-IR3C | VR-IR3DS","144.937500 | 145.262500 | 145.325000 | 145.350000 | 145.375000 | 145.412500 | 145.487500 | 145.587500 | 145.625000 | 145.687500 | 145.787500 | 145.700000 | 144.950000 | 145.337500 | 145.650000 | 144.950000 | 145.625000 | 145.750000 | 145.275000 | 145.562500 | 145.575000 | 145.675000 | 145.725000 | 144.637500 | 145.725000 | 145.775000","144.9375 | 145.2625 | 145.325 | 145.35 | 145.375 | 145.4125 | 144.8875 | 144.9875 | 145.025 | 145.0875 | 145.1875 | 145.1 | 145.55 | 145.3375 | 145.05 | 144.95 | 145.025 | 145.15 | 145.275 | 144.9625 | 144.975 | 145.075 | 145.125 | 144.6375 | 145.125 | 145.175",BL-IZ3ZOI,144.937500,144.9375,VR-IR3DS,145.775000,145.175
62,Veneto-D,"BL-IR3UFN-BM | BL-IR3AO3-BM | BL-IQ3DD-BM | PD-IR3UGT-BM | RO-IR3UCN-BM | RO-IR3AH2-BM | RO-IR3UEN-BM | TV-IR3UDD-BM | TV-IR3UFH-BM | VE-IW3GPO-BM | VE-IR3UGZ-BM | VE-IR3UBL-BM | VI-I3ZNI-IT | VI-IR3DK-BM | VI-IR3UIJ-BM | VI-IR3UIX-BM | VR-I3QFC-BM | VR-IR3UIW-IT | VR-IZ3XGH | VR-IQ3VO-BM | VR-I3QFC2-BM | VR-IW3IHV-BM","430.400000 | 430.637500 | 431.462500 | 430.850000 | 430.500000 | 430.675000 | 430.775000 | 430.700000 | 430.837500 | 430.750000 | 430.875000 | 431.375000 | 430.300000 | 430.825000 | 430.937500 | 431.512500 | 430.325000 | 430.575000 | 430.875000 | 430.900000 | 430.950000 | 430.975000","435.4 | 435.6375 | 433.0625 | 435.85 | 435.5 | 435.675 | 435.775 | 435.7 | 435.8375 | 435.75 | 435.875 | 432.975 | 435.3 | 435.825 | 435.9375 | 433.1125 | 435.325 | 435.575 | 435.875 | 435.9 | 435.95 | 435.975",BL-IR3UFN-BM,430.400000,435.4,VR-IW3IHV-BM,430.975000,435.975
